<svg width="22" height="22" viewBox="0 0 22 22" fill="none" xmlns="http://www.w3.org/2000/svg">
<path d="M12.2579 5.18143L12.1164 5.32294L12.258 5.46436L16.9883 10.189H2.44434H2.24434V10.389V11.6112V11.8112H2.44434H16.9883L12.258 16.5358L12.1164 16.6772L12.2579 16.8187L13.1257 17.6865L13.2672 17.828L13.4086 17.6864L19.9475 11.1414L20.0887 11.0001L19.9475 10.8587L13.4086 4.31372L13.2672 4.17217L13.1257 4.31366L12.2579 5.18143Z" fill="white" stroke="white" stroke-width="0.4"/>
</svg>
